{
  "project_info": {
    "project_number": "533536795700",
    "project_id": "thinksocial-8c95c",
    "storage_bucket": "thinksocial-8c95c.appspot.com"
  },
  "client": [
    {
      "client_info": {
        "mobilesdk_app_id": "1:533536795700:android:956923bdd10a3bed3bae61",
        "android_client_info": {
          "package_name": "com.aknow.thinksocial"
        }
      },
      "oauth_client": [
        {
          "client_id": "533536795700-7g1snmo2mr39irnojq5b5mhr4ugkmfne.apps.googleusercontent.com",
          "client_type": 3
        }
      ],
      "api_key": [
        {
          "current_key": "AIzaSyB176TSz-QRfzZYf36Mhq2XlGrvqqA33K0"
        }
      ],
      "services": {
        "appinvite_service": {
          "other_platform_oauth_client": [
            {
              "client_id": "533536795700-7g1snmo2mr39irnojq5b5mhr4ugkmfne.apps.googleusercontent.com",
              "client_type": 3
            },
            {
              "client_id": "533536795700-n8ig672mftvqmjoqbnf8d7ub7gtmski3.apps.googleusercontent.com",
              "client_type": 2,
              "ios_info": {
                "bundle_id": "com.aknow.thinksocial"
              }
            }
          ]
        }
      }
    },
    {
      "client_info": {
        "mobilesdk_app_id": "1:533536795700:android:96b91f280900bc723bae61",
        "android_client_info": {
          "package_name": "com.atermon.thinksocial"
        }
      },
      "oauth_client": [
        {
          "client_id": "533536795700-7g1snmo2mr39irnojq5b5mhr4ugkmfne.apps.googleusercontent.com",
          "client_type": 3
        }
      ],
      "api_key": [
        {
          "current_key": "AIzaSyB176TSz-QRfzZYf36Mhq2XlGrvqqA33K0"
        }
      ],
      "services": {
        "appinvite_service": {
          "other_platform_oauth_client": [
            {
              "client_id": "533536795700-7g1snmo2mr39irnojq5b5mhr4ugkmfne.apps.googleusercontent.com",
              "client_type": 3
            },
            {
              "client_id": "533536795700-n8ig672mftvqmjoqbnf8d7ub7gtmski3.apps.googleusercontent.com",
              "client_type": 2,
              "ios_info": {
                "bundle_id": "com.aknow.thinksocial"
              }
            }
          ]
        }
      }
    }
  ],
  "configuration_version": "1"
}